^C:\USERS\RAJ\DOCUMENTS\CODING\GAGE\GAGE XOP 2015 VERSION\GAGEXOP\VC10\RELEASE\GAGEXOP.SBR
C:\WINDOWS\SYSTEM32\TZRES.DLL
C:\USERS\RAJ\DOCUMENTS\CODING\GAGE\GAGE XOP 2015 VERSION\GAGEXOP\VC10\GAGEXOP.BSC
C:\USERS\RAJ\DOCUMENTS\CODING\GAGE\GAGE XOP 2015 VERSION\GAGEXOP\VC10\RELEASE\GAGEXOP.SBR
