^C:\Users\Raj\Documents\Coding\Gage\Gage XOP 2015 version\GaGeXOP\VC10\GaGeXOP.vcxproj
C:\Users\Raj\Documents\Coding\Gage\Gage XOP 2015 version\GaGeXOP\VC10\Release\GaGeXOP.lib
C:\Users\Raj\Documents\Coding\Gage\Gage XOP 2015 version\GaGeXOP\VC10\Release\GaGeXOP.exp
^C:\Users\Raj\Documents\Coding\Gage\Gage XOP 2015 version\GaGeXOP\VC10\GaGeXOP.vcxproj
C:\Users\Raj\Documents\Coding\Gage\Gage XOP 2015 version\GaGeXOP\VC10\Release\GaGeXOP.lib
C:\Users\Raj\Documents\Coding\Gage\Gage XOP 2015 version\GaGeXOP\VC10\Release\GaGeXOP.exp
^C:\Users\Raj\Documents\Coding\Gage\Gage XOP 2015 version\GaGeXOP\VC10\GaGeXOP.vcxproj
C:\Users\Raj\Documents\Coding\Gage\Gage XOP 2015 version\GaGeXOP\VC10\Release\GaGeXOP.lib
C:\Users\Raj\Documents\Coding\Gage\Gage XOP 2015 version\GaGeXOP\VC10\Release\GaGeXOP.exp
^C:\Users\Raj\Documents\Coding\Gage\Gage XOP 2015 version\GaGeXOP\VC10\GaGeXOP.vcxproj
C:\Users\Raj\Documents\Coding\Gage\Gage XOP 2015 version\GaGeXOP\VC10\Release\GaGeXOP.lib
C:\Users\Raj\Documents\Coding\Gage\Gage XOP 2015 version\GaGeXOP\VC10\Release\GaGeXOP.exp
^C:\Users\Raj\Documents\Coding\Gage\Gage XOP 2015 version\GaGeXOP\VC10\GaGeXOP.vcxproj
C:\Users\Raj\Documents\Coding\Gage\Gage XOP 2015 version\GaGeXOP\VC10\Release\GaGeXOP.lib
C:\Users\Raj\Documents\Coding\Gage\Gage XOP 2015 version\GaGeXOP\VC10\Release\GaGeXOP.exp
^C:\Users\Raj\Documents\Coding\Gage\Gage XOP 2015 version\GaGeXOP\VC10\GaGeXOP.vcxproj
C:\Users\Raj\Documents\Coding\Gage\Gage XOP 2015 version\GaGeXOP\VC10\Release\GaGeXOP.lib
C:\Users\Raj\Documents\Coding\Gage\Gage XOP 2015 version\GaGeXOP\VC10\Release\GaGeXOP.exp
^C:\Users\Raj\Documents\Coding\Gage\Gage XOP 2015 version\GaGeXOP\VC10\GaGeXOP.vcxproj
C:\Users\Raj\Documents\Coding\Gage\Gage XOP 2015 version\GaGeXOP\VC10\Release\GaGeXOP.lib
C:\Users\Raj\Documents\Coding\Gage\Gage XOP 2015 version\GaGeXOP\VC10\Release\GaGeXOP.exp
^C:\Users\Raj\Documents\Coding\Gage\Gage XOP 2015 version\GaGeXOP\VC10\GaGeXOP.vcxproj
C:\Users\Raj\Documents\Coding\Gage\Gage XOP 2015 version\GaGeXOP\VC10\Release\GaGeXOP.lib
C:\Users\Raj\Documents\Coding\Gage\Gage XOP 2015 version\GaGeXOP\VC10\Release\GaGeXOP.exp
^C:\Users\Raj\Documents\Coding\Gage\Gage XOP 2015 version\GaGeXOP\VC10\GaGeXOP.vcxproj
C:\Users\Raj\Documents\Coding\Gage\Gage XOP 2015 version\GaGeXOP\VC10\Release\GaGeXOP.lib
C:\Users\Raj\Documents\Coding\Gage\Gage XOP 2015 version\GaGeXOP\VC10\Release\GaGeXOP.exp
^C:\Users\Raj\Documents\Coding\Gage\Gage XOP 2015 version\GaGeXOP\VC10\GaGeXOP.vcxproj
C:\Users\Raj\Documents\Coding\Gage\Gage XOP 2015 version\GaGeXOP\VC10\Release\GaGeXOP.lib
C:\Users\Raj\Documents\Coding\Gage\Gage XOP 2015 version\GaGeXOP\VC10\Release\GaGeXOP.exp
^C:\Users\Raj\Documents\Coding\Gage\Gage XOP 2015 version\GaGeXOP\VC10\GaGeXOP.vcxproj
C:\Users\Raj\Documents\Coding\Gage\Gage XOP 2015 version\GaGeXOP\VC10\Release\GaGeXOP.lib
C:\Users\Raj\Documents\Coding\Gage\Gage XOP 2015 version\GaGeXOP\VC10\Release\GaGeXOP.exp
^C:\Users\Raj\Documents\Coding\Gage\Gage XOP 2015 version\GaGeXOP\VC10\GaGeXOP.vcxproj
C:\Users\Raj\Documents\Coding\Gage\Gage XOP 2015 version\GaGeXOP\VC10\Release\GaGeXOP.lib
C:\Users\Raj\Documents\Coding\Gage\Gage XOP 2015 version\GaGeXOP\VC10\Release\GaGeXOP.exp
^C:\Users\Raj\Documents\Coding\Gage\Gage XOP 2015 version\GaGeXOP\VC10\GaGeXOP.vcxproj
C:\Users\Raj\Documents\Coding\Gage\Gage XOP 2015 version\GaGeXOP\VC10\Release\GaGeXOP.lib
C:\Users\Raj\Documents\Coding\Gage\Gage XOP 2015 version\GaGeXOP\VC10\Release\GaGeXOP.exp
^C:\Users\Raj\Documents\Coding\Gage\Gage XOP 2015 version\GaGeXOP\VC10\GaGeXOP.vcxproj
C:\Users\Raj\Documents\Coding\Gage\Gage XOP 2015 version\GaGeXOP\VC10\Release\GaGeXOP.lib
C:\Users\Raj\Documents\Coding\Gage\Gage XOP 2015 version\GaGeXOP\VC10\Release\GaGeXOP.exp
^C:\Users\Raj\Documents\Coding\Gage\Gage XOP 2015 version\GaGeXOP\VC10\GaGeXOP.vcxproj
C:\Users\Raj\Documents\Coding\Gage\Gage XOP 2015 version\GaGeXOP\VC10\Release\GaGeXOP.lib
C:\Users\Raj\Documents\Coding\Gage\Gage XOP 2015 version\GaGeXOP\VC10\Release\GaGeXOP.exp
^C:\Users\Raj\Documents\Coding\Gage\Gage XOP 2015 version\GaGeXOP\VC10\GaGeXOP.vcxproj
C:\Users\Raj\Documents\Coding\Gage\Gage XOP 2015 version\GaGeXOP\VC10\Release\GaGeXOP.lib
C:\Users\Raj\Documents\Coding\Gage\Gage XOP 2015 version\GaGeXOP\VC10\Release\GaGeXOP.exp
^C:\Users\Raj\Documents\Coding\Gage\Gage XOP 2015 version\GaGeXOP\VC10\GaGeXOP.vcxproj
C:\Users\Raj\Documents\Coding\Gage\Gage XOP 2015 version\GaGeXOP\VC10\Release\GaGeXOP.lib
C:\Users\Raj\Documents\Coding\Gage\Gage XOP 2015 version\GaGeXOP\VC10\Release\GaGeXOP.exp
^C:\Users\Raj\Documents\Coding\Gage\Gage XOP 2015 version\GaGeXOP\VC10\GaGeXOP.vcxproj
C:\Users\Raj\Documents\Coding\Gage\Gage XOP 2015 version\GaGeXOP\VC10\Release\GaGeXOP.lib
C:\Users\Raj\Documents\Coding\Gage\Gage XOP 2015 version\GaGeXOP\VC10\Release\GaGeXOP.exp
^C:\Users\Raj\Documents\Coding\Gage\Gage XOP 2015 version\GaGeXOP\VC10\GaGeXOP.vcxproj
C:\Users\Raj\Documents\Coding\Gage\Gage XOP 2015 version\GaGeXOP\VC10\Release\GaGeXOP.lib
C:\Users\Raj\Documents\Coding\Gage\Gage XOP 2015 version\GaGeXOP\VC10\Release\GaGeXOP.exp
^C:\Users\Raj\Documents\Coding\Gage\Gage XOP 2015 version\GaGeXOP\VC10\GaGeXOP.vcxproj
C:\Users\Raj\Documents\Coding\Gage\Gage XOP 2015 version\GaGeXOP\VC10\Release\GaGeXOP.lib
C:\Users\Raj\Documents\Coding\Gage\Gage XOP 2015 version\GaGeXOP\VC10\Release\GaGeXOP.exp
^C:\Users\Raj\Documents\Coding\Gage\Gage XOP 2015 version\GaGeXOP\VC10\GaGeXOP.vcxproj
C:\Users\Raj\Documents\Coding\Gage\Gage XOP 2015 version\GaGeXOP\VC10\Release\GaGeXOP.lib
C:\Users\Raj\Documents\Coding\Gage\Gage XOP 2015 version\GaGeXOP\VC10\Release\GaGeXOP.exp
^C:\Users\Raj\Documents\Coding\Gage\Gage XOP 2015 version\GaGeXOP\VC10\GaGeXOP.vcxproj
C:\Users\Raj\Documents\Coding\Gage\Gage XOP 2015 version\GaGeXOP\VC10\Release\GaGeXOP.lib
C:\Users\Raj\Documents\Coding\Gage\Gage XOP 2015 version\GaGeXOP\VC10\Release\GaGeXOP.exp
^C:\Users\Raj\Documents\Coding\Gage\Gage XOP 2015 version\GaGeXOP\VC10\GaGeXOP.vcxproj
C:\Users\Raj\Documents\Coding\Gage\Gage XOP 2015 version\GaGeXOP\VC10\Release\GaGeXOP.lib
C:\Users\Raj\Documents\Coding\Gage\Gage XOP 2015 version\GaGeXOP\VC10\Release\GaGeXOP.exp
^C:\Users\Raj\Documents\Coding\Gage\Gage XOP 2015 version\GaGeXOP\VC10\GaGeXOP.vcxproj
C:\Users\Raj\Documents\Coding\Gage\Gage XOP 2015 version\GaGeXOP\VC10\Release\GaGeXOP.lib
C:\Users\Raj\Documents\Coding\Gage\Gage XOP 2015 version\GaGeXOP\VC10\Release\GaGeXOP.exp
^C:\Users\Raj\Documents\Coding\Gage\Gage XOP 2015 version\GaGeXOP\VC10\GaGeXOP.vcxproj
C:\Users\Raj\Documents\Coding\Gage\Gage XOP 2015 version\GaGeXOP\VC10\Release\GaGeXOP.lib
C:\Users\Raj\Documents\Coding\Gage\Gage XOP 2015 version\GaGeXOP\VC10\Release\GaGeXOP.exp
^C:\Users\Raj\Documents\Coding\Gage\Gage XOP 2015 version\GaGeXOP\VC10\GaGeXOP.vcxproj
C:\Users\Raj\Documents\Coding\Gage\Gage XOP 2015 version\GaGeXOP\VC10\Release\GaGeXOP.lib
C:\Users\Raj\Documents\Coding\Gage\Gage XOP 2015 version\GaGeXOP\VC10\Release\GaGeXOP.exp
^C:\Users\Raj\Documents\Coding\Gage\Gage XOP 2015 version\GaGeXOP\VC10\GaGeXOP.vcxproj
C:\Users\Raj\Documents\Coding\Gage\Gage XOP 2015 version\GaGeXOP\VC10\Release\GaGeXOP.lib
C:\Users\Raj\Documents\Coding\Gage\Gage XOP 2015 version\GaGeXOP\VC10\Release\GaGeXOP.exp
^C:\Users\Raj\Documents\Coding\Gage\Gage XOP 2015 version\GaGeXOP\VC10\GaGeXOP.vcxproj
C:\Users\Raj\Documents\Coding\Gage\Gage XOP 2015 version\GaGeXOP\VC10\Release\GaGeXOP.lib
C:\Users\Raj\Documents\Coding\Gage\Gage XOP 2015 version\GaGeXOP\VC10\Release\GaGeXOP.exp
^C:\Users\Raj\Documents\Coding\Gage\Gage XOP 2015 version\GaGeXOP\VC10\GaGeXOP.vcxproj
C:\Users\Raj\Documents\Coding\Gage\Gage XOP 2015 version\GaGeXOP\VC10\Release\GaGeXOP.lib
C:\Users\Raj\Documents\Coding\Gage\Gage XOP 2015 version\GaGeXOP\VC10\Release\GaGeXOP.exp
^C:\Users\Raj\Documents\Coding\Gage\Gage XOP 2015 version\GaGeXOP\VC10\GaGeXOP.vcxproj
C:\Users\Raj\Documents\Coding\Gage\Gage XOP 2015 version\GaGeXOP\VC10\Release\GaGeXOP.lib
C:\Users\Raj\Documents\Coding\Gage\Gage XOP 2015 version\GaGeXOP\VC10\Release\GaGeXOP.exp
^C:\Users\Raj\Documents\Coding\Gage\Gage XOP 2015 version\GaGeXOP\VC10\GaGeXOP.vcxproj
C:\Users\Raj\Documents\Coding\Gage\Gage XOP 2015 version\GaGeXOP\VC10\Release\GaGeXOP.lib
C:\Users\Raj\Documents\Coding\Gage\Gage XOP 2015 version\GaGeXOP\VC10\Release\GaGeXOP.exp
^C:\Users\Raj\Documents\Coding\Gage\Gage XOP 2015 version\GaGeXOP\VC10\GaGeXOP.vcxproj
C:\Users\Raj\Documents\Coding\Gage\Gage XOP 2015 version\GaGeXOP\VC10\Release\GaGeXOP.lib
C:\Users\Raj\Documents\Coding\Gage\Gage XOP 2015 version\GaGeXOP\VC10\Release\GaGeXOP.exp
^C:\Users\Raj\Documents\Coding\Gage\Gage XOP 2015 version\GaGeXOP\VC10\GaGeXOP.vcxproj
C:\Users\Raj\Documents\Coding\Gage\Gage XOP 2015 version\GaGeXOP\VC10\Release\GaGeXOP.lib
C:\Users\Raj\Documents\Coding\Gage\Gage XOP 2015 version\GaGeXOP\VC10\Release\GaGeXOP.exp
