^C:\USERS\RAJ\DOCUMENTS\CODING\GAGE\GAGE XOP 2015 VERSION\GAGEXOP\VC10\RELEASE\GAGEXOP.OBJ|C:\USERS\RAJ\DOCUMENTS\CODING\GAGE\GAGE XOP 2015 VERSION\GAGEXOP\VC10\RELEASE\GAGEXOP.RES
C:\USERS\RAJ\DOCUMENTS\CODING\GAGE\GAGE XOP 2015 VERSION\GAGEXOP\VC10\GAGEXOP.XOP
C:\USERS\RAJ\DOCUMENTS\CODING\GAGE\GAGE XOP 2015 VERSION\GAGEXOP\VC10\GAGEXOP.ILK
C:\USERS\RAJ\DOCUMENTS\CODING\GAGE\GAGE XOP 2015 VERSION\GAGEXOP\VC10\RELEASE\GAGEXOP.PDB
